{
    "results": [
        {
            "id": "https://www.gov.uk/api/organisations/academy-for-social-justice",
            "title": " ",
            "format": "Other",
            "updated_at": "2019-05-15T12:12:17.000+01:00",
            "web_url": "https://www.gov.uk/government/organisations/academy-for-social-justice",
            "details": {
                "slug": "academy-for-social-justice",
                "abbreviation": null,
                "logo_formatted_name": "Academy for Social Justice",
                "organisation_brand_colour_class_name": "ministry-of-justice",
                "organisation_logo_type_class_name": "single-identity",
                "closed_at": null,
                "govuk_status": "live",
                "govuk_closed_status": null,
                "content_id": "b854f170-53c8-4098-bf77-e8ef42f93107"
            },
            "analytics_identifier": "OT1276",
            "parent_organisations": [
                {
                    "id": "https://www.gov.uk/api/organisations/ministry-of-justice",
                    "web_url": "https://www.gov.uk/government/organisations/ministry-of-justice"
                }
            ],
            "child_organisations": [],
            "superseded_organisations": [
                {
                    "id": "https://www.gov.uk/api/organisations/academy-for-social-justice-commissioning",
                    "web_url": "https://www.gov.uk/government/organisations/academy-for-social-justice-commissioning"
                }
            ],
            "superseding_organisations": []
        },
        {
            "id": "https://www.gov.uk/api/organisations/accelerated-capability-environment",
            "title": "Accelerated Capability Environment",
            "format": "Sub organisation",
            "updated_at": "2022-11-14T11:23:08.000+00:00",
            "web_url": "https://www.gov.uk/government/organisations/accelerated-capability-environment",
            "details": {
                "slug": "accelerated-capability-environment",
                "abbreviation": "ACE",
                "logo_formatted_name": "Accelerated Capability Environment",
                "organisation_brand_colour_class_name": "home-office",
                "organisation_logo_type_class_name": "custom",
                "closed_at": null,
                "govuk_status": "live",
                "govuk_closed_status": null,
                "content_id": "92bbe2da-8d5f-480b-8da1-50b18e317654"
            },
            "analytics_identifier": "OT1369",
            "parent_organisations": [
                {
                    "id": "https://www.gov.uk/api/organisations/home-office",
                    "web_url": "https://www.gov.uk/government/organisations/home-office"
                }
            ],
            "child_organisations": [],
            "superseded_organisations": [],
            "superseding_organisations": []
        },
        {
            "id": "https://www.gov.uk/api/organisations/active-travel-england",
            "title": "Active Travel England",
            "format": "Executive agency",
            "updated_at": "2023-03-09T07:31:13.000+00:00",
            "web_url": "https://www.gov.uk/government/organisations/active-travel-england",
            "details": {
                "slug": "active-travel-england",
                "abbreviation": "ATE",
                "logo_formatted_name": "Active Travel England",
                "organisation_brand_colour_class_name": "department-for-transport",
                "organisation_logo_type_class_name": "single-identity",
                "closed_at": null,
                "govuk_status": "live",
                "govuk_closed_status": null,
                "content_id": "c963b443-e0b1-4730-8c7e-526441fcd205"
            },
            "analytics_identifier": "EA1350",
            "parent_organisations": [
                {
                    "id": "https://www.gov.uk/api/organisations/department-for-transport",
                    "web_url": "https://www.gov.uk/government/organisations/department-for-transport"
                }
            ],
            "child_organisations": [],
            "superseded_organisations": [],
            "superseding_organisations": []
        },
        {
            "id": "https://www.gov.uk/api/organisations/administration-of-radioactive-substances-advisory-committee",
            "title": "Administration of Radioactive Substances Advisory Committee",
            "format": "Other",
            "updated_at": "2018-04-10T15:19:08.000+01:00",
            "web_url": "https://www.gov.uk/government/organisations/administration-of-radioactive-substances-advisory-committee",
            "details": {
                "slug": "administration-of-radioactive-substances-advisory-committee",
                "abbreviation": "ARSAC",
                "logo_formatted_name": "Administration of \r\nRadioactive Substances \r\nAdvisory Committee",
                "organisation_brand_colour_class_name": "department-of-health",
                "organisation_logo_type_class_name": "single-identity",
                "closed_at": null,
                "govuk_status": "live",
                "govuk_closed_status": null,
                "content_id": "b5bd9a64-4315-492e-9679-3e2f6799c769"
            },
            "analytics_identifier": "PB523",
            "parent_organisations": [
                {
                    "id": "https://www.gov.uk/api/organisations/department-of-health-and-social-care",
                    "web_url": "https://www.gov.uk/government/organisations/department-of-health-and-social-care"
                }
            ],
            "child_organisations": [],
            "superseded_organisations": [],
            "superseding_organisations": []
        },
        {
            "id": "https://www.gov.uk/api/organisations/administrative-court",
            "title": "Administrative Court",
            "format": "Court",
            "updated_at": "2016-07-25T15:16:18.000+01:00",
            "web_url": "https://www.gov.uk/government/organisations/administrative-court",
            "details": {
                "slug": "administrative-court",
                "abbreviation": null,
                "logo_formatted_name": "Administrative Court",
                "organisation_brand_colour_class_name": null,
                "organisation_logo_type_class_name": "no-identity",
                "closed_at": null,
                "govuk_status": "live",
                "govuk_closed_status": null,
                "content_id": "b0bdfcf3-2763-4002-961e-a0b2d7825038"
            },
            "analytics_identifier": "CO1188",
            "parent_organisations": [
                {
                    "id": "https://www.gov.uk/api/organisations/hm-courts-and-tribunals-service",
                    "web_url": "https://www.gov.uk/government/organisations/hm-courts-and-tribunals-service"
                }
            ],
            "child_organisations": [],
            "superseded_organisations": [],
            "superseding_organisations": []
        },
        {
            "id": "https://www.gov.uk/api/organisations/admiralty-court",
            "title": "Admiralty Court",
            "format": "Court",
            "updated_at": "2015-06-29T15:58:45.000+01:00",
            "web_url": "https://www.gov.uk/government/organisations/admiralty-court",
            "details": {
                "slug": "admiralty-court",
                "abbreviation": null,
                "logo_formatted_name": "Admiralty Court",
                "organisation_brand_colour_class_name": null,
                "organisation_logo_type_class_name": "no-identity",
                "closed_at": null,
                "govuk_status": "live",
                "govuk_closed_status": null,
                "content_id": "2585bb7b-6134-4176-8309-db184573a4c1"
            },
            "analytics_identifier": "CO1147",
            "parent_organisations": [
                {
                    "id": "https://www.gov.uk/api/organisations/hm-courts-and-tribunals-service",
                    "web_url": "https://www.gov.uk/government/organisations/hm-courts-and-tribunals-service"
                }
            ],
            "child_organisations": [],
            "superseded_organisations": [],
            "superseding_organisations": []
        },
        {
            "id": "https://www.gov.uk/api/organisations/advanced-research-and-invention-agency",
            "title": "",
            "format": "Executive non-departmental public body",
            "updated_at": "2022-07-19T09:24:41.000+01:00",
            "web_url": "https://www.gov.uk/government/organisations/advanced-research-and-invention-agency",
            "details": {
                "slug": "advanced-research-and-invention-agency",
                "abbreviation": "ARIA",
                "logo_formatted_name": "Advanced Research and Invention Agency",
                "organisation_brand_colour_class_name": null,
                "organisation_logo_type_class_name": "no-identity",
                "closed_at": null,
                "govuk_status": "exempt",
                "govuk_closed_status": null,
                "content_id": "330bdc96-a584-450e-9536-5932691e5cd7"
            },
            "analytics_identifier": "PB1364",
            "parent_organisations": [
                {
                    "id": "https://www.gov.uk/api/organisations/department-for-science-innovation-and-technology",
                    "web_url": "https://www.gov.uk/government/organisations/department-for-science-innovation-and-technology"
                }
            ],
            "child_organisations": [],
            "superseded_organisations": [],
            "superseding_organisations": []
        },
        {
            "id": "https://www.gov.uk/api/organisations/advisory-committee-on-animal-feedingstuffs",
            "title": "Advisory Committee on Animal Feedingstuffs",
            "format": "Advisory non-departmental public body",
            "updated_at": "2014-10-15T15:36:52.000+01:00",
            "web_url": "https://www.gov.uk/government/organisations/advisory-committee-on-animal-feedingstuffs",
            "details": {
                "slug": "advisory-committee-on-animal-feedingstuffs",
                "abbreviation": "ACAF",
                "logo_formatted_name": "Advisory Committee on \r\nAnimal Feedingstuffs",
                "organisation_brand_colour_class_name": null,
                "organisation_logo_type_class_name": "single-identity",
                "closed_at": null,
                "govuk_status": "exempt",
                "govuk_closed_status": null,
                "content_id": "b02a8db0-6bbb-4010-9584-1a6623dc7012"
            },
            "analytics_identifier": "PB573",
            "parent_organisations": [
                {
                    "id": "https://www.gov.uk/api/organisations/food-standards-agency",
                    "web_url": "https://www.gov.uk/government/organisations/food-standards-agency"
                }
            ],
            "child_organisations": [],
            "superseded_organisations": [],
            "superseding_organisations": []
        },
        {
            "id": "https://www.gov.uk/api/organisations/advisory-committee-on-business-appointments",
            "title": "Advisory Committee on Business Appointments",
            "format": "Advisory non-departmental public body",
            "updated_at": "2015-02-18T09:33:11.000+00:00",
            "web_url": "https://www.gov.uk/government/organisations/advisory-committee-on-business-appointments",
            "details": {
                "slug": "advisory-committee-on-business-appointments",
                "abbreviation": "ACOBA",
                "logo_formatted_name": "Advisory Committee on Business Appointments",
                "organisation_brand_colour_class_name": "cabinet-office",
                "organisation_logo_type_class_name": "single-identity",
                "closed_at": null,
                "govuk_status": "live",
                "govuk_closed_status": null,
                "content_id": "6e414d7c-61af-4113-b039-435e461ddaf2"
            },
            "analytics_identifier": "PB336",
            "parent_organisations": [
                {
                    "id": "https://www.gov.uk/api/organisations/cabinet-office",
                    "web_url": "https://www.gov.uk/government/organisations/cabinet-office"
                }
            ],
            "child_organisations": [],
            "superseded_organisations": [],
            "superseding_organisations": []
        },
        {
            "id": "https://www.gov.uk/api/organisations/advisory-committee-on-clinical-impact-awards",
            "title": "Advisory Committee on Clinical Impact Awards",
            "format": "Advisory non-departmental public body",
            "updated_at": "2022-04-13T15:15:35.000+01:00",
            "web_url": "https://www.gov.uk/government/organisations/advisory-committee-on-clinical-impact-awards",
            "details": {
                "slug": "advisory-committee-on-clinical-impact-awards",
                "abbreviation": "ACCIA",
                "logo_formatted_name": "Advisory Committee on Clinical Impact Awards",
                "organisation_brand_colour_class_name": "department-of-health",
                "organisation_logo_type_class_name": "no-identity",
                "closed_at": null,
                "govuk_status": "live",
                "govuk_closed_status": null,
                "content_id": "d3eb23ce-23ad-4d26-88b2-b088c525dbb0"
            },
            "analytics_identifier": "PB1354",
            "parent_organisations": [
                {
                    "id": "https://www.gov.uk/api/organisations/department-of-health-and-social-care",
                    "web_url": "https://www.gov.uk/government/organisations/department-of-health-and-social-care"
                }
            ],
            "child_organisations": [],
            "superseded_organisations": [
                {
                    "id": "https://www.gov.uk/api/organisations/advisory-committee-on-clinical-excellence-awards",
                    "web_url": "https://www.gov.uk/government/organisations/advisory-committee-on-clinical-excellence-awards"
                }
            ],
            "superseding_organisations": []
        },
        {
            "id": "https://www.gov.uk/api/organisations/advisory-committee-on-conscientious-objectors",
            "title": "Advisory Committee on Conscientious Objectors",
            "format": "Advisory non-departmental public body",
            "updated_at": "2014-10-15T15:36:18.000+01:00",
            "web_url": "https://www.gov.uk/government/organisations/advisory-committee-on-conscientious-objectors",
            "details": {
                "slug": "advisory-committee-on-conscientious-objectors",
                "abbreviation": "ACCO",
                "logo_formatted_name": "Advisory Committee on \r\nConscientious Objectors",
                "organisation_brand_colour_class_name": "ministry-of-defence",
                "organisation_logo_type_class_name": "mod",
                "closed_at": null,
                "govuk_status": "live",
                "govuk_closed_status": null,
                "content_id": "a090e915-247a-4a63-a283-f22f948f27b3"
            },
            "analytics_identifier": "PB392",
            "parent_organisations": [
                {
                    "id": "https://www.gov.uk/api/organisations/ministry-of-defence",
                    "web_url": "https://www.gov.uk/government/organisations/ministry-of-defence"
                }
            ],
            "child_organisations": [],
            "superseded_organisations": [],
            "superseding_organisations": []
        },
        {
            "id": "https://www.gov.uk/api/organisations/advisory-committee-on-novel-foods-and-processes",
            "title": "Advisory Committee on Novel Foods and Processes",
            "format": "Advisory non-departmental public body",
            "updated_at": "2014-10-15T15:36:52.000+01:00",
            "web_url": "https://www.gov.uk/government/organisations/advisory-committee-on-novel-foods-and-processes",
            "details": {
                "slug": "advisory-committee-on-novel-foods-and-processes",
                "abbreviation": "ACNFP",
                "logo_formatted_name": "Advisory Committee \r\non Novel Foods \r\nand Processes",
                "organisation_brand_colour_class_name": null,
                "organisation_logo_type_class_name": "single-identity",
                "closed_at": null,
                "govuk_status": "exempt",
                "govuk_closed_status": null,
                "content_id": "c175500c-c1f1-46e3-9e4d-02ef02202264"
            },
            "analytics_identifier": "PB574",
            "parent_organisations": [
                {
                    "id": "https://www.gov.uk/api/organisations/food-standards-agency",
                    "web_url": "https://www.gov.uk/government/organisations/food-standards-agency"
                }
            ],
            "child_organisations": [],
            "superseded_organisations": [],
            "superseding_organisations": []
        },
        {
            "id": "https://www.gov.uk/api/organisations/advisory-committee-on-releases-to-the-environment",
            "title": "Advisory Committee on Releases to the Environment",
            "format": "Advisory non-departmental public body",
            "updated_at": "2015-02-17T17:52:16.000+00:00",
            "web_url": "https://www.gov.uk/government/organisations/advisory-committee-on-releases-to-the-environment",
            "details": {
                "slug": "advisory-committee-on-releases-to-the-environment",
                "abbreviation": "ACRE",
                "logo_formatted_name": "Advisory Committee \r\non Releases to \r\nthe Environment",
                "organisation_brand_colour_class_name": "department-for-environment-food-rural-affairs",
                "organisation_logo_type_class_name": "single-identity",
                "closed_at": null,
                "govuk_status": "live",
                "govuk_closed_status": null,
                "content_id": "baf7f75e-00c3-41b1-accc-c082ef5f83d7"
            },
            "analytics_identifier": "PB209",
            "parent_organisations": [
                {
                    "id": "https://www.gov.uk/api/organisations/department-for-environment-food-rural-affairs",
                    "web_url": "https://www.gov.uk/government/organisations/department-for-environment-food-rural-affairs"
                }
            ],
            "child_organisations": [],
            "superseded_organisations": [],
            "superseding_organisations": []
        },
        {
            "id": "https://www.gov.uk/api/organisations/advisory-committee-on-the-microbiological-safety-of-food",
            "title": "Advisory Committee on the Microbiological Safety of Food",
            "format": "Advisory non-departmental public body",
            "updated_at": "2014-10-15T15:36:53.000+01:00",
            "web_url": "https://www.gov.uk/government/organisations/advisory-committee-on-the-microbiological-safety-of-food",
            "details": {
                "slug": "advisory-committee-on-the-microbiological-safety-of-food",
                "abbreviation": "ACMSF",
                "logo_formatted_name": "Advisory Committee \r\non the Microbiological \r\nSafety of Food",
                "organisation_brand_colour_class_name": null,
                "organisation_logo_type_class_name": "single-identity",
                "closed_at": null,
                "govuk_status": "exempt",
                "govuk_closed_status": null,
                "content_id": "53a94971-b4db-48e4-b2c8-2e452f0f090d"
            },
            "analytics_identifier": "PB575",
            "parent_organisations": [
                {
                    "id": "https://www.gov.uk/api/organisations/food-standards-agency",
                    "web_url": "https://www.gov.uk/government/organisations/food-standards-agency"
                }
            ],
            "child_organisations": [],
            "superseded_organisations": [],
            "superseding_organisations": []
        },
        {
            "id": "https://www.gov.uk/api/organisations/advisory-committees-on-justices-of-the-peace",
            "title": "Advisory Committees on Justices of the Peace",
            "format": "Advisory non-departmental public body",
            "updated_at": "2014-10-15T15:36:27.000+01:00",
            "web_url": "https://www.gov.uk/government/organisations/advisory-committees-on-justices-of-the-peace",
            "details": {
                "slug": "advisory-committees-on-justices-of-the-peace",
                "abbreviation": "ACJP",
                "logo_formatted_name": "Advisory Committees on \r\nJustices of the Peace",
                "organisation_brand_colour_class_name": "ministry-of-justice",
                "organisation_logo_type_class_name": "no-identity",
                "closed_at": null,
                "govuk_status": "exempt",
                "govuk_closed_status": null,
                "content_id": "a8a3406a-d2bf-418d-b2d7-26f06c9747ee"
            },
            "analytics_identifier": "PB437",
            "parent_organisations": [
                {
                    "id": "https://www.gov.uk/api/organisations/ministry-of-justice",
                    "web_url": "https://www.gov.uk/government/organisations/ministry-of-justice"
                }
            ],
            "child_organisations": [],
            "superseded_organisations": [],
            "superseding_organisations": []
        },
        {
            "id": "https://www.gov.uk/api/organisations/advisory-council-on-the-misuse-of-drugs",
            "title": "Advisory Council on the Misuse of Drugs",
            "format": "Advisory non-departmental public body",
            "updated_at": "2019-03-15T16:29:56.000+00:00",
            "web_url": "https://www.gov.uk/government/organisations/advisory-council-on-the-misuse-of-drugs",
            "details": {
                "slug": "advisory-council-on-the-misuse-of-drugs",
                "abbreviation": "ACMD",
                "logo_formatted_name": "Advisory Council on \r\nthe Misuse of Drugs",
                "organisation_brand_colour_class_name": null,
                "organisation_logo_type_class_name": "no-identity",
                "closed_at": null,
                "govuk_status": "live",
                "govuk_closed_status": null,
                "content_id": "f12ec794-c57e-4ffc-a2eb-aeeb07f12905"
            },
            "analytics_identifier": "PB271",
            "parent_organisations": [
                {
                    "id": "https://www.gov.uk/api/organisations/home-office",
                    "web_url": "https://www.gov.uk/government/organisations/home-office"
                }
            ],
            "child_organisations": [],
            "superseded_organisations": [],
            "superseding_organisations": []
        },
        {
            "id": "https://www.gov.uk/api/organisations/advisory-group-on-military-medicine",
            "title": "Advisory Group on Military and Emergency Response Medicine",
            "format": "Ad-hoc advisory group",
            "updated_at": "2020-12-02T15:53:39.000+00:00",
            "web_url": "https://www.gov.uk/government/organisations/advisory-group-on-military-medicine",
            "details": {
                "slug": "advisory-group-on-military-medicine",
                "abbreviation": "AGMERM",
                "logo_formatted_name": "Advisory Group on Military and Emergency Response Medicine",
                "organisation_brand_colour_class_name": "ministry-of-defence",
                "organisation_logo_type_class_name": "mod",
                "closed_at": null,
                "govuk_status": "live",
                "govuk_closed_status": null,
                "content_id": "384b4ae9-e039-4897-be06-cf61e3599d91"
            },
            "analytics_identifier": "PB393",
            "parent_organisations": [
                {
                    "id": "https://www.gov.uk/api/organisations/ministry-of-defence",
                    "web_url": "https://www.gov.uk/government/organisations/ministry-of-defence"
                }
            ],
            "child_organisations": [],
            "superseded_organisations": [],
            "superseding_organisations": []
        },
        {
            "id": "https://www.gov.uk/api/organisations/acas",
            "title": "Advisory, Conciliation and Arbitration Service",
            "format": "Executive non-departmental public body",
            "updated_at": "2023-03-17T13:35:31.000+00:00",
            "web_url": "https://www.gov.uk/government/organisations/acas",
            "details": {
                "slug": "acas",
                "abbreviation": "Acas",
                "logo_formatted_name": "Advisory, Conciliation and Arbitration Service",
                "organisation_brand_colour_class_name": "department-for-international-trade",
                "organisation_logo_type_class_name": "no-identity",
                "closed_at": null,
                "govuk_status": "exempt",
                "govuk_closed_status": null,
                "content_id": "fb40955a-d2ff-4993-a052-91a7558cbb79"
            },
            "analytics_identifier": "PB28",
            "parent_organisations": [
                {
                    "id": "https://www.gov.uk/api/organisations/department-for-business-and-trade",
                    "web_url": "https://www.gov.uk/government/organisations/department-for-business-and-trade"
                }
            ],
            "child_organisations": [],
            "superseded_organisations": [],
            "superseding_organisations": []
        },
        {
            "id": "https://www.gov.uk/api/organisations/agri-food-and-biosciences-institute",
            "title": "Agri-Food and Biosciences Institute (Northern Ireland)",
            "format": "Executive non-departmental public body",
            "updated_at": "2018-10-02T16:54:51.000+01:00",
            "web_url": "https://www.gov.uk/government/organisations/agri-food-and-biosciences-institute",
            "details": {
                "slug": "agri-food-and-biosciences-institute",
                "abbreviation": null,
                "logo_formatted_name": "Agri-Food and \r\nBiosciences Institute  (Northern Ireland)",
                "organisation_brand_colour_class_name": null,
                "organisation_logo_type_class_name": "no-identity",
                "closed_at": null,
                "govuk_status": "exempt",
                "govuk_closed_status": "devolved",
                "content_id": "ffcd90a5-5112-454b-b8a0-2819f46bede8"
            },
            "analytics_identifier": "PB1072",
            "parent_organisations": [
                {
                    "id": "https://www.gov.uk/api/organisations/department-of-agriculture-environment-and-rural-affairs-northern-ireland",
                    "web_url": "https://www.gov.uk/government/organisations/department-of-agriculture-environment-and-rural-affairs-northern-ireland"
                }
            ],
            "child_organisations": [],
            "superseded_organisations": [],
            "superseding_organisations": [
                {
                    "id": "https://www.gov.uk/api/organisations/northern-ireland-executive",
                    "web_url": "https://www.gov.uk/government/organisations/northern-ireland-executive"
                }
            ]
        },
        {
            "id": "https://www.gov.uk/api/organisations/agriculture-and-horticulture-development-board",
            "title": "Agriculture and Horticulture Development Board",
            "format": "Executive non-departmental public body",
            "updated_at": "2014-10-15T15:35:48.000+01:00",
            "web_url": "https://www.gov.uk/government/organisations/agriculture-and-horticulture-development-board",
            "details": {
                "slug": "agriculture-and-horticulture-development-board",
                "abbreviation": "AHDB",
                "logo_formatted_name": "Agriculture and Horticulture \r\nDevelopment Board",
                "organisation_brand_colour_class_name": "department-for-environment-food-rural-affairs",
                "organisation_logo_type_class_name": "no-identity",
                "closed_at": null,
                "govuk_status": "exempt",
                "govuk_closed_status": null,
                "content_id": "55aacfdf-a236-4d4f-be82-201014f061a3"
            },
            "analytics_identifier": "OT204",
            "parent_organisations": [
                {
                    "id": "https://www.gov.uk/api/organisations/department-for-environment-food-rural-affairs",
                    "web_url": "https://www.gov.uk/government/organisations/department-for-environment-food-rural-affairs"
                }
            ],
            "child_organisations": [],
            "superseded_organisations": [],
            "superseding_organisations": []
        }
    ],
    "next_page_url": "https://www.gov.uk/api/organisations?page=2",
    "current_page": 1,
    "total": 1184,
    "pages": 60,
    "page_size": 20,
    "start_index": 1,
    "_response_info": {
        "status": "ok",
        "links": [
            {
                "href": "https://www.gov.uk/api/organisations?page=2",
                "rel": "next"
            },
            {
                "href": "https://www.gov.uk/api/organisations?page=1",
                "rel": "self"
            }
        ]
    }
}
