{
    "results": [
        {
            "id": "https://www.gov.uk/api/organisations/children-and-family-court-advisory-and-support-service",
            "title": "Cafcass",
            "format": "Executive non-departmental public body",
            "updated_at": "2014-10-15T15:35:54.000+01:00",
            "web_url": "https://www.gov.uk/government/organisations/children-and-family-court-advisory-and-support-service",
            "details": {
                "slug": "children-and-family-court-advisory-and-support-service",
                "abbreviation": "Cafcass",
                "logo_formatted_name": "Cafcass",
                "organisation_brand_colour_class_name": "ministry-of-justice",
                "organisation_logo_type_class_name": "no-identity",
                "closed_at": null,
                "govuk_status": "exempt",
                "govuk_closed_status": null,
                "content_id": "cc46a817-e7f3-4b60-9f5e-a004dc32ba44"
            },
            "analytics_identifier": "PB246",
            "parent_organisations": [
                {
                    "id": "https://www.gov.uk/api/organisations/ministry-of-justice",
                    "web_url": "https://www.gov.uk/government/organisations/ministry-of-justice"
                }
            ],
            "child_organisations": [],
            "superseded_organisations": [],
            "superseding_organisations": []
        },
        {
            "id": "https://www.gov.uk/api/organisations/care-quality-commission",
            "title": "Care Quality Commission",
            "format": "Executive non-departmental public body",
            "updated_at": "2014-10-15T15:35:55.000+01:00",
            "web_url": "https://www.gov.uk/government/organisations/care-quality-commission",
            "details": {
                "slug": "care-quality-commission",
                "abbreviation": "CQC",
                "logo_formatted_name": "Care Quality \r\nCommission",
                "organisation_brand_colour_class_name": "department-of-health",
                "organisation_logo_type_class_name": "no-identity",
                "closed_at": null,
                "govuk_status": "exempt",
                "govuk_closed_status": null,
                "content_id": "a124d48a-7c10-48c9-9a1a-514f9d59cdbf"
            },
            "analytics_identifier": "PB251",
            "parent_organisations": [
                {
                    "id": "https://www.gov.uk/api/organisations/department-of-health-and-social-care",
                    "web_url": "https://www.gov.uk/government/organisations/department-of-health-and-social-care"
                }
            ],
            "child_organisations": [],
            "superseded_organisations": [],
            "superseding_organisations": []
        },
        {
            "id": "https://www.gov.uk/api/organisations/careers-wales",
            "title": "Careers Wales",
            "format": "Other",
            "updated_at": "2015-02-17T12:16:35.000+00:00",
            "web_url": "https://www.gov.uk/government/organisations/careers-wales",
            "details": {
                "slug": "careers-wales",
                "abbreviation": null,
                "logo_formatted_name": "Careers Wales",
                "organisation_brand_colour_class_name": "wales-office",
                "organisation_logo_type_class_name": "single-identity",
                "closed_at": null,
                "govuk_status": "exempt",
                "govuk_closed_status": "devolved",
                "content_id": "3fa65136-9467-48e9-af39-f6031bcdae28"
            },
            "analytics_identifier": "OT1102",
            "parent_organisations": [
                {
                    "id": "https://www.gov.uk/api/organisations/welsh-government",
                    "web_url": "https://www.gov.uk/government/organisations/welsh-government"
                }
            ],
            "child_organisations": [],
            "superseded_organisations": [],
            "superseding_organisations": [
                {
                    "id": "https://www.gov.uk/api/organisations/welsh-government",
                    "web_url": "https://www.gov.uk/government/organisations/welsh-government"
                }
            ]
        },
        {
            "id": "https://www.gov.uk/api/organisations/central-advisory-committee-on-compensation",
            "title": "Central Advisory Committee on Compensation",
            "format": "Ad-hoc advisory group",
            "updated_at": "2016-06-28T15:20:46.000+01:00",
            "web_url": "https://www.gov.uk/government/organisations/central-advisory-committee-on-compensation",
            "details": {
                "slug": "central-advisory-committee-on-compensation",
                "abbreviation": "CAC Compensation",
                "logo_formatted_name": "Central Advisory Committee \r\non Compensation",
                "organisation_brand_colour_class_name": "ministry-of-defence",
                "organisation_logo_type_class_name": "mod",
                "closed_at": null,
                "govuk_status": "live",
                "govuk_closed_status": null,
                "content_id": "689091b3-a023-4a18-90c1-8e37d4fee951"
            },
            "analytics_identifier": "PB1194",
            "parent_organisations": [
                {
                    "id": "https://www.gov.uk/api/organisations/ministry-of-defence",
                    "web_url": "https://www.gov.uk/government/organisations/ministry-of-defence"
                }
            ],
            "child_organisations": [],
            "superseded_organisations": [
                {
                    "id": "https://www.gov.uk/api/organisations/central-advisory-committee-on-pensions-and-compensation",
                    "web_url": "https://www.gov.uk/government/organisations/central-advisory-committee-on-pensions-and-compensation"
                }
            ],
            "superseding_organisations": []
        },
        {
            "id": "https://www.gov.uk/api/organisations/central-arbitration-committee",
            "title": "Central Arbitration Committee",
            "format": "Tribunal",
            "updated_at": "2019-09-12T11:19:07.000+01:00",
            "web_url": "https://www.gov.uk/government/organisations/central-arbitration-committee",
            "details": {
                "slug": "central-arbitration-committee",
                "abbreviation": "CAC",
                "logo_formatted_name": "Central Arbitration Committee",
                "organisation_brand_colour_class_name": "department-for-business-innovation-skills",
                "organisation_logo_type_class_name": "bis",
                "closed_at": null,
                "govuk_status": "live",
                "govuk_closed_status": null,
                "content_id": "b512e829-9473-490b-bac1-4be4eec8d7de"
            },
            "analytics_identifier": "PB148",
            "parent_organisations": [
                {
                    "id": "https://www.gov.uk/api/organisations/department-for-business-and-trade",
                    "web_url": "https://www.gov.uk/government/organisations/department-for-business-and-trade"
                }
            ],
            "child_organisations": [],
            "superseded_organisations": [],
            "superseding_organisations": []
        },
        {
            "id": "https://www.gov.uk/api/organisations/central-digital-and-data-office",
            "title": "Central Digital and Data Office",
            "format": "Sub organisation",
            "updated_at": "2023-02-06T15:42:29.000+00:00",
            "web_url": "https://www.gov.uk/government/organisations/central-digital-and-data-office",
            "details": {
                "slug": "central-digital-and-data-office",
                "abbreviation": "CDDO",
                "logo_formatted_name": "Central Digital \r\n& Data Office",
                "organisation_brand_colour_class_name": "cabinet-office",
                "organisation_logo_type_class_name": "single-identity",
                "closed_at": null,
                "govuk_status": "live",
                "govuk_closed_status": null,
                "content_id": "2fb482e7-3c4d-496f-887d-f8a55a15e89a"
            },
            "analytics_identifier": "OT1329",
            "parent_organisations": [
                {
                    "id": "https://www.gov.uk/api/organisations/cabinet-office",
                    "web_url": "https://www.gov.uk/government/organisations/cabinet-office"
                }
            ],
            "child_organisations": [],
            "superseded_organisations": [
                {
                    "id": "https://www.gov.uk/api/organisations/digital-data-and-technology-profession",
                    "web_url": "https://www.gov.uk/government/organisations/digital-data-and-technology-profession"
                }
            ],
            "superseding_organisations": []
        },
        {
            "id": "https://www.gov.uk/api/organisations/centre-for-connected-and-autonomous-vehicles",
            "title": "Centre for Connected and Autonomous Vehicles ",
            "format": "Sub organisation",
            "updated_at": "2017-08-30T14:38:11.000+01:00",
            "web_url": "https://www.gov.uk/government/organisations/centre-for-connected-and-autonomous-vehicles",
            "details": {
                "slug": "centre-for-connected-and-autonomous-vehicles",
                "abbreviation": "CCAV",
                "logo_formatted_name": "Centre for Connected and Autonomous Vehicles \r\n",
                "organisation_brand_colour_class_name": "department-for-transport",
                "organisation_logo_type_class_name": "single-identity",
                "closed_at": null,
                "govuk_status": "live",
                "govuk_closed_status": null,
                "content_id": "e00316af-9d5b-4223-8097-8851b5ddeb81"
            },
            "analytics_identifier": "OT1223",
            "parent_organisations": [
                {
                    "id": "https://www.gov.uk/api/organisations/department-for-transport",
                    "web_url": "https://www.gov.uk/government/organisations/department-for-transport"
                },
                {
                    "id": "https://www.gov.uk/api/organisations/department-for-business-and-trade",
                    "web_url": "https://www.gov.uk/government/organisations/department-for-business-and-trade"
                }
            ],
            "child_organisations": [],
            "superseded_organisations": [],
            "superseding_organisations": []
        },
        {
            "id": "https://www.gov.uk/api/organisations/centre-for-data-ethics-and-innovation",
            "title": "Centre for Data Ethics and Innovation",
            "format": "Sub organisation",
            "updated_at": "2021-11-22T16:01:49.000+00:00",
            "web_url": "https://www.gov.uk/government/organisations/centre-for-data-ethics-and-innovation",
            "details": {
                "slug": "centre-for-data-ethics-and-innovation",
                "abbreviation": "CDEI",
                "logo_formatted_name": "Centre for\r\nData Ethics\r\nand Innovation",
                "organisation_brand_colour_class_name": "cabinet-office",
                "organisation_logo_type_class_name": "no-identity",
                "closed_at": null,
                "govuk_status": "live",
                "govuk_closed_status": null,
                "content_id": "1405edcb-943d-42d2-8ec8-c51cd58335a5"
            },
            "analytics_identifier": "OT1280",
            "parent_organisations": [
                {
                    "id": "https://www.gov.uk/api/organisations/department-for-science-innovation-and-technology",
                    "web_url": "https://www.gov.uk/government/organisations/department-for-science-innovation-and-technology"
                }
            ],
            "child_organisations": [],
            "superseded_organisations": [],
            "superseding_organisations": []
        },
        {
            "id": "https://www.gov.uk/api/organisations/centre-for-environment-fisheries-and-aquaculture-science",
            "title": "Centre for Environment, Fisheries and Aquaculture Science",
            "format": "Executive agency",
            "updated_at": "2022-03-24T12:34:11.000+00:00",
            "web_url": "https://www.gov.uk/government/organisations/centre-for-environment-fisheries-and-aquaculture-science",
            "details": {
                "slug": "centre-for-environment-fisheries-and-aquaculture-science",
                "abbreviation": "Cefas",
                "logo_formatted_name": "Centre for Environment\r\nFisheries and Aquaculture \r\nScience",
                "organisation_brand_colour_class_name": "department-for-environment-food-rural-affairs",
                "organisation_logo_type_class_name": "single-identity",
                "closed_at": null,
                "govuk_status": "live",
                "govuk_closed_status": null,
                "content_id": "fd6cee28-ac4c-4fb5-9f46-54d24a500818"
            },
            "analytics_identifier": "EA53",
            "parent_organisations": [
                {
                    "id": "https://www.gov.uk/api/organisations/department-for-environment-food-rural-affairs",
                    "web_url": "https://www.gov.uk/government/organisations/department-for-environment-food-rural-affairs"
                }
            ],
            "child_organisations": [],
            "superseded_organisations": [],
            "superseding_organisations": []
        },
        {
            "id": "https://www.gov.uk/api/organisations/certification-officer",
            "title": "Certification Officer",
            "format": "Other",
            "updated_at": "2023-03-17T15:26:03.000+00:00",
            "web_url": "https://www.gov.uk/government/organisations/certification-officer",
            "details": {
                "slug": "certification-officer",
                "abbreviation": "Certification Officer",
                "logo_formatted_name": "Certification Officer",
                "organisation_brand_colour_class_name": "department-for-international-trade",
                "organisation_logo_type_class_name": "single-identity",
                "closed_at": null,
                "govuk_status": "live",
                "govuk_closed_status": null,
                "content_id": "3c16fddc-350e-4b2f-abfe-1a7c1821bd28"
            },
            "analytics_identifier": "PB139",
            "parent_organisations": [
                {
                    "id": "https://www.gov.uk/api/organisations/department-for-business-and-trade",
                    "web_url": "https://www.gov.uk/government/organisations/department-for-business-and-trade"
                }
            ],
            "child_organisations": [],
            "superseded_organisations": [],
            "superseding_organisations": []
        },
        {
            "id": "https://www.gov.uk/api/organisations/chancery-division-of-the-high-court",
            "title": "Chancery Division of the High Court",
            "format": "Court",
            "updated_at": "2016-08-22T15:27:43.000+01:00",
            "web_url": "https://www.gov.uk/government/organisations/chancery-division-of-the-high-court",
            "details": {
                "slug": "chancery-division-of-the-high-court",
                "abbreviation": null,
                "logo_formatted_name": "Chancery Division of the High Court",
                "organisation_brand_colour_class_name": null,
                "organisation_logo_type_class_name": "no-identity",
                "closed_at": null,
                "govuk_status": "live",
                "govuk_closed_status": null,
                "content_id": "6fe5b36c-b875-45d8-bbe4-c29702708d44"
            },
            "analytics_identifier": "CO1205",
            "parent_organisations": [
                {
                    "id": "https://www.gov.uk/api/organisations/hm-courts-and-tribunals-service",
                    "web_url": "https://www.gov.uk/government/organisations/hm-courts-and-tribunals-service"
                }
            ],
            "child_organisations": [],
            "superseded_organisations": [],
            "superseding_organisations": []
        },
        {
            "id": "https://www.gov.uk/api/organisations/channel-4",
            "title": "Channel 4",
            "format": "Public corporation",
            "updated_at": "2023-02-14T10:03:35.000+00:00",
            "web_url": "https://www.gov.uk/government/organisations/channel-4",
            "details": {
                "slug": "channel-4",
                "abbreviation": "C4",
                "logo_formatted_name": "Channel 4",
                "organisation_brand_colour_class_name": "department-for-culture-media-sport",
                "organisation_logo_type_class_name": "no-identity",
                "closed_at": null,
                "govuk_status": "exempt",
                "govuk_closed_status": null,
                "content_id": "2766247d-5731-46f7-9dfe-fc74f243929d"
            },
            "analytics_identifier": "PC386",
            "parent_organisations": [
                {
                    "id": "https://www.gov.uk/api/organisations/department-for-culture-media-and-sport",
                    "web_url": "https://www.gov.uk/government/organisations/department-for-culture-media-and-sport"
                }
            ],
            "child_organisations": [],
            "superseded_organisations": [],
            "superseding_organisations": []
        },
        {
            "id": "https://www.gov.uk/api/organisations/chevening-foundation",
            "title": "Chevening Scholarship Programme ",
            "format": "Other",
            "updated_at": "2023-02-20T14:16:39.000+00:00",
            "web_url": "https://www.gov.uk/government/organisations/chevening-foundation",
            "details": {
                "slug": "chevening-foundation",
                "abbreviation": "Chevening",
                "logo_formatted_name": "Chevening Scholarship Programme ",
                "organisation_brand_colour_class_name": null,
                "organisation_logo_type_class_name": "no-identity",
                "closed_at": null,
                "govuk_status": "exempt",
                "govuk_closed_status": null,
                "content_id": "740574ed-f753-4c56-9f2e-3176520d65a2"
            },
            "analytics_identifier": "OT492",
            "parent_organisations": [],
            "child_organisations": [],
            "superseded_organisations": [],
            "superseding_organisations": []
        },
        {
            "id": "https://www.gov.uk/api/organisations/child-safeguarding-practice-review-panel",
            "title": "Child Safeguarding Practice Review Panel",
            "format": "Other",
            "updated_at": "2022-07-25T12:07:42.000+01:00",
            "web_url": "https://www.gov.uk/government/organisations/child-safeguarding-practice-review-panel",
            "details": {
                "slug": "child-safeguarding-practice-review-panel",
                "abbreviation": null,
                "logo_formatted_name": "Child Safeguarding Practice Review Panel",
                "organisation_brand_colour_class_name": "department-for-education",
                "organisation_logo_type_class_name": "single-identity",
                "closed_at": null,
                "govuk_status": "live",
                "govuk_closed_status": null,
                "content_id": "4635462d-6bf0-4d41-9f86-8fdb27ddddd1"
            },
            "analytics_identifier": "OT1277",
            "parent_organisations": [
                {
                    "id": "https://www.gov.uk/api/organisations/department-for-education",
                    "web_url": "https://www.gov.uk/government/organisations/department-for-education"
                }
            ],
            "child_organisations": [],
            "superseded_organisations": [],
            "superseding_organisations": []
        },
        {
            "id": "https://www.gov.uk/api/organisations/churches-conservation-trust",
            "title": "Churches Conservation Trust",
            "format": "Other",
            "updated_at": "2019-07-25T13:43:37.000+01:00",
            "web_url": "https://www.gov.uk/government/organisations/churches-conservation-trust",
            "details": {
                "slug": "churches-conservation-trust",
                "abbreviation": null,
                "logo_formatted_name": "Churches Conservation Trust",
                "organisation_brand_colour_class_name": null,
                "organisation_logo_type_class_name": "no-identity",
                "closed_at": null,
                "govuk_status": "exempt",
                "govuk_closed_status": null,
                "content_id": "0bbde75d-f8ff-4f7a-b94e-5005505db4f5"
            },
            "analytics_identifier": "OT1290",
            "parent_organisations": [
                {
                    "id": "https://www.gov.uk/api/organisations/department-for-culture-media-and-sport",
                    "web_url": "https://www.gov.uk/government/organisations/department-for-culture-media-and-sport"
                }
            ],
            "child_organisations": [],
            "superseded_organisations": [],
            "superseding_organisations": []
        },
        {
            "id": "https://www.gov.uk/api/organisations/commercial-circuit-court",
            "title": "Circuit Commercial Court",
            "format": "Court",
            "updated_at": "2018-01-25T13:32:17.000+00:00",
            "web_url": "https://www.gov.uk/government/organisations/commercial-circuit-court",
            "details": {
                "slug": "commercial-circuit-court",
                "abbreviation": null,
                "logo_formatted_name": "Circuit Commercial Court",
                "organisation_brand_colour_class_name": null,
                "organisation_logo_type_class_name": "no-identity",
                "closed_at": null,
                "govuk_status": "live",
                "govuk_closed_status": null,
                "content_id": "deb54ca3-1425-408a-8e92-a4d74ad497fa"
            },
            "analytics_identifier": "CO1158",
            "parent_organisations": [
                {
                    "id": "https://www.gov.uk/api/organisations/hm-courts-and-tribunals-service",
                    "web_url": "https://www.gov.uk/government/organisations/hm-courts-and-tribunals-service"
                }
            ],
            "child_organisations": [],
            "superseded_organisations": [],
            "superseding_organisations": []
        },
        {
            "id": "https://www.gov.uk/api/organisations/civil-aviation-authority",
            "title": "Civil Aviation Authority",
            "format": "Public corporation",
            "updated_at": "2014-10-15T15:36:33.000+01:00",
            "web_url": "https://www.gov.uk/government/organisations/civil-aviation-authority",
            "details": {
                "slug": "civil-aviation-authority",
                "abbreviation": "CAA",
                "logo_formatted_name": "Civil Aviation Authority",
                "organisation_brand_colour_class_name": "department-for-transport",
                "organisation_logo_type_class_name": "no-identity",
                "closed_at": null,
                "govuk_status": "exempt",
                "govuk_closed_status": null,
                "content_id": "1400bcfb-c0f2-4e1c-b8fb-1135a2b83088"
            },
            "analytics_identifier": "PC469",
            "parent_organisations": [
                {
                    "id": "https://www.gov.uk/api/organisations/department-for-transport",
                    "web_url": "https://www.gov.uk/government/organisations/department-for-transport"
                }
            ],
            "child_organisations": [],
            "superseded_organisations": [],
            "superseding_organisations": []
        },
        {
            "id": "https://www.gov.uk/api/organisations/civil-justice-council",
            "title": "Civil Justice Council",
            "format": "Advisory non-departmental public body",
            "updated_at": "2023-10-17T15:10:04.000+01:00",
            "web_url": "https://www.gov.uk/government/organisations/civil-justice-council",
            "details": {
                "slug": "civil-justice-council",
                "abbreviation": "CJC",
                "logo_formatted_name": "Civil Justice Council",
                "organisation_brand_colour_class_name": "ministry-of-justice",
                "organisation_logo_type_class_name": "no-identity",
                "closed_at": null,
                "govuk_status": "exempt",
                "govuk_closed_status": null,
                "content_id": "3f99ade1-1078-4a38-8b20-b14fa9ad90ee"
            },
            "analytics_identifier": "PB293",
            "parent_organisations": [
                {
                    "id": "https://www.gov.uk/api/organisations/ministry-of-justice",
                    "web_url": "https://www.gov.uk/government/organisations/ministry-of-justice"
                }
            ],
            "child_organisations": [],
            "superseded_organisations": [],
            "superseding_organisations": []
        },
        {
            "id": "https://www.gov.uk/api/organisations/civil-nuclear-constabulary",
            "title": "Civil Nuclear Constabulary",
            "format": "Sub organisation",
            "updated_at": "2020-08-03T10:11:33.000+01:00",
            "web_url": "https://www.gov.uk/government/organisations/civil-nuclear-constabulary",
            "details": {
                "slug": "civil-nuclear-constabulary",
                "abbreviation": "CNC",
                "logo_formatted_name": "Civil Nuclear Constabulary",
                "organisation_brand_colour_class_name": "department-of-energy-climate-change",
                "organisation_logo_type_class_name": "single-identity",
                "closed_at": null,
                "govuk_status": "live",
                "govuk_closed_status": null,
                "content_id": "c507c878-87d8-4e4b-bd3a-35eff619f99b"
            },
            "analytics_identifier": "OT1063",
            "parent_organisations": [
                {
                    "id": "https://www.gov.uk/api/organisations/civil-nuclear-police-authority",
                    "web_url": "https://www.gov.uk/government/organisations/civil-nuclear-police-authority"
                }
            ],
            "child_organisations": [],
            "superseded_organisations": [],
            "superseding_organisations": []
        },
        {
            "id": "https://www.gov.uk/api/organisations/civil-nuclear-police-authority",
            "title": "Civil Nuclear Police Authority",
            "format": "Executive non-departmental public body",
            "updated_at": "2014-10-15T15:35:46.000+01:00",
            "web_url": "https://www.gov.uk/government/organisations/civil-nuclear-police-authority",
            "details": {
                "slug": "civil-nuclear-police-authority",
                "abbreviation": "CNPA",
                "logo_formatted_name": "Civil Nuclear \r\nPolice Authority",
                "organisation_brand_colour_class_name": "department-of-energy-climate-change",
                "organisation_logo_type_class_name": "single-identity",
                "closed_at": null,
                "govuk_status": "live",
                "govuk_closed_status": null,
                "content_id": "b0f55845-c93e-44d3-bf04-56261181a845"
            },
            "analytics_identifier": "PB194",
            "parent_organisations": [
                {
                    "id": "https://www.gov.uk/api/organisations/department-for-energy-security-and-net-zero",
                    "web_url": "https://www.gov.uk/government/organisations/department-for-energy-security-and-net-zero"
                }
            ],
            "child_organisations": [
                {
                    "id": "https://www.gov.uk/api/organisations/civil-nuclear-constabulary",
                    "web_url": "https://www.gov.uk/government/organisations/civil-nuclear-constabulary"
                }
            ],
            "superseded_organisations": [],
            "superseding_organisations": []
        }
    ],
    "previous_page_url": "https://www.gov.uk/api/organisations?page=3",
    "next_page_url": "https://www.gov.uk/api/organisations?page=5",
    "current_page": 4,
    "total": 1184,
    "pages": 60,
    "page_size": 20,
    "start_index": 61,
    "_response_info": {
        "status": "ok",
        "links": [
            {
                "href": "https://www.gov.uk/api/organisations?page=3",
                "rel": "previous"
            },
            {
                "href": "https://www.gov.uk/api/organisations?page=5",
                "rel": "next"
            },
            {
                "href": "https://www.gov.uk/api/organisations?page=4",
                "rel": "self"
            }
        ]
    }
}
